<?xml version="1.0" encoding="UTF-8" standalone="no"?>
<!-- Created with Inkscape (http://www.inkscape.org/) -->

<svg
   xmlns:dc="http://purl.org/dc/elements/1.1/"
   xmlns:cc="http://creativecommons.org/ns#"
   xmlns:rdf="http://www.w3.org/1999/02/22-rdf-syntax-ns#"
   xmlns:svg="http://www.w3.org/2000/svg"
   xmlns="http://www.w3.org/2000/svg"
   xmlns:sodipodi="http://sodipodi.sourceforge.net/DTD/sodipodi-0.dtd"
   xmlns:inkscape="http://www.inkscape.org/namespaces/inkscape"
   width="48"
   height="48"
   viewBox="0 0 45 45.000001"
   id="svg4958"
   version="1.1"
   inkscape:version="0.92.1 r15371"
   sodipodi:docname="entreprise-privee.svg"
   inkscape:export-filename="D:\0-0-Agata\graphik\pictogrammes\Pictos-fonctions\picto-loupe.png"
   inkscape:export-xdpi="300"
   inkscape:export-ydpi="300">
  <defs
     id="defs4960" />
  <sodipodi:namedview
     id="base"
     pagecolor="#ffffff"
     bordercolor="#666666"
     borderopacity="1.0"
     inkscape:pageopacity="0.0"
     inkscape:pageshadow="2"
     inkscape:zoom="7.9195959"
     inkscape:cx="1.9929543"
     inkscape:cy="29.762198"
     inkscape:document-units="px"
     inkscape:current-layer="layer1"
     showgrid="true"
     units="px"
     inkscape:window-width="1366"
     inkscape:window-height="705"
     inkscape:window-x="-8"
     inkscape:window-y="-8"
     inkscape:window-maximized="1">
    <inkscape:grid
       type="xygrid"
       id="grid6185"
       originx="0"
       originy="0"
       spacingx="1"
       spacingy="1" />
  </sodipodi:namedview>
  <metadata
     id="metadata4963">
    <rdf:RDF>
      <cc:Work
         rdf:about="">
        <dc:format>image/svg+xml</dc:format>
        <dc:type
           rdf:resource="http://purl.org/dc/dcmitype/StillImage" />
        <dc:title></dc:title>
      </cc:Work>
    </rdf:RDF>
  </metadata>
  <g
     inkscape:label="Calque 1"
     inkscape:groupmode="layer"
     id="layer1"
     transform="translate(0,-1007.3622)">
    <rect
       style="opacity:1;fill:none;fill-opacity:1;stroke:none;stroke-width:1.95103896;stroke-linecap:round;stroke-linejoin:round;stroke-miterlimit:4;stroke-dasharray:none;stroke-dashoffset:0;stroke-opacity:1"
       id="rect5524-3"
       width="45"
       height="45"
       x="-47.501274"
       y="1008.649" />
    <path
       style="display:inline;fill:none;fill-rule:evenodd;stroke:none;stroke-width:0.60000008px;stroke-linecap:butt;stroke-linejoin:miter;stroke-opacity:1"
       d="M -20.20591,1022.9818 H 9.5578782 v 29.7638 H -20.20591 Z"
       id="path5102-0"
       inkscape:connector-curvature="0"
       inkscape:export-filename="D:\0-0-Opacite\graphik\pictogrammes\Déf\Sénat.png"
       inkscape:export-xdpi="300"
       inkscape:export-ydpi="300" />
    <g
       id="g25861"
       transform="translate(0.94167227,-0.13090253)">
      <rect
         inkscape:export-ydpi="300"
         inkscape:export-xdpi="300"
         inkscape:export-filename="D:\0-0-Agata\graphik\pictogrammes\Déf-1\visu.png"
         y="1007.4931"
         x="-0.94167227"
         height="45"
         width="45"
         id="rect5524"
         style="opacity:1;fill:none;fill-opacity:1;stroke:none;stroke-width:1.95103896;stroke-linecap:round;stroke-linejoin:round;stroke-miterlimit:4;stroke-dasharray:none;stroke-dashoffset:0;stroke-opacity:1" />
      <rect
         inkscape:export-ydpi="300"
         inkscape:export-xdpi="300"
         inkscape:export-filename="D:\0-0-Agata\graphik\pictogrammes\Déf-1\visu.png"
         y="1007.4931"
         x="-0.94167227"
         height="45"
         width="45"
         id="rect5524-31"
         style="opacity:1;fill:none;fill-opacity:1;stroke:none;stroke-width:1.95103896;stroke-linecap:round;stroke-linejoin:round;stroke-miterlimit:4;stroke-dasharray:none;stroke-dashoffset:0;stroke-opacity:1" />
      <g
         transform="matrix(0.57499996,0,0,0.57499996,-506.43335,1629.8113)"
         id="g21261"
         style="display:inline">
        <circle
           style="display:inline;opacity:1;fill:#fafafa;fill-opacity:1;stroke:#34a400;stroke-width:3.26609707;stroke-linecap:round;stroke-miterlimit:4;stroke-dasharray:none;stroke-dashoffset:0;stroke-opacity:1"
           id="path5962-9-0-9-9-3-4-3-8-9-0-6-0-8-7-1-1"
           cx="918.24646"
           cy="-1043.1621"
           r="35.866955" />
        <g
           id="g21245"
           transform="matrix(0.56329374,0,0,0.56329374,452.82185,-524.17864)">
          <path
             inkscape:connector-curvature="0"
             id="path21241"
             d="m 791.8491,-949.30237 0.66291,55.68466 32.81417,-2.65165 1.98874,-64.96543 z"
             style="fill:#ffe939;fill-opacity:1;stroke:none;stroke-width:0.9375px;stroke-linecap:butt;stroke-linejoin:miter;stroke-opacity:1" />
          <path
             style="fill:#505050;fill-opacity:1;stroke-width:0.9375"
             id="path10372"
             d="m 861.55918,-956.05617 -3.06562,-1.1906 v 0 l -7.29375,-2.8125 -8.33438,-3.2437 -7.5,-2.9157 -6.5625,-2.55 a 5.625,5.625 0 0 0 -4.10625,0 l -32.71875,12.7125 a 4.790625,4.790625 0 0 0 -2.625,4.575 v 56.5782 h -3.66562 a 4.6875,4.6875 0 1 0 0,9.3187 h 82.1625 a 4.6875,4.6875 0 0 0 0,-9.3187 h -3.65625 v -56.5782 a 4.790625,4.790625 0 0 0 -2.63438,-4.575 z m -38.475,54.9188 -26.31562,0.6844 v -6.5625 l 26.35312,-2.0625 z m 0,-15.8531 -26.31562,3.4406 v -6.5625 l 26.35312,-4.8188 z m 0,-15.8532 -26.31562,6.1875 v -6.5625 l 26.35312,-7.575 z m 0,-15.8531 -26.31562,8.9438 v -6.4407 l 26.31562,-10.2562 z"
             inkscape:connector-curvature="0" />
        </g>
      </g>
    </g>
  </g>
</svg>
