<?xml version="1.0" encoding="UTF-8" standalone="no"?>
<!-- Created with Inkscape (http://www.inkscape.org/) -->

<svg
   xmlns:dc="http://purl.org/dc/elements/1.1/"
   xmlns:cc="http://creativecommons.org/ns#"
   xmlns:rdf="http://www.w3.org/1999/02/22-rdf-syntax-ns#"
   xmlns:svg="http://www.w3.org/2000/svg"
   xmlns="http://www.w3.org/2000/svg"
   xmlns:sodipodi="http://sodipodi.sourceforge.net/DTD/sodipodi-0.dtd"
   xmlns:inkscape="http://www.inkscape.org/namespaces/inkscape"
   width="48"
   height="48"
   viewBox="0 0 45 45.000001"
   id="svg4958"
   version="1.1"
   inkscape:version="0.92.1 r15371"
   sodipodi:docname="minerais.svg"
   inkscape:export-filename="D:\0-0-Agata\graphik\pictogrammes\Pictos-fonctions\picto-loupe.png"
   inkscape:export-xdpi="300"
   inkscape:export-ydpi="300">
  <defs
     id="defs4960" />
  <sodipodi:namedview
     id="base"
     pagecolor="#ffffff"
     bordercolor="#666666"
     borderopacity="1.0"
     inkscape:pageopacity="0.0"
     inkscape:pageshadow="2"
     inkscape:zoom="7.9195959"
     inkscape:cx="38.409569"
     inkscape:cy="22.261615"
     inkscape:document-units="px"
     inkscape:current-layer="g21531"
     showgrid="true"
     units="px"
     inkscape:window-width="1366"
     inkscape:window-height="705"
     inkscape:window-x="-8"
     inkscape:window-y="-8"
     inkscape:window-maximized="1">
    <inkscape:grid
       type="xygrid"
       id="grid6185"
       originx="0"
       originy="0"
       spacingx="1"
       spacingy="1" />
  </sodipodi:namedview>
  <metadata
     id="metadata4963">
    <rdf:RDF>
      <cc:Work
         rdf:about="">
        <dc:format>image/svg+xml</dc:format>
        <dc:type
           rdf:resource="http://purl.org/dc/dcmitype/StillImage" />
        <dc:title></dc:title>
      </cc:Work>
    </rdf:RDF>
  </metadata>
  <g
     inkscape:label="Calque 1"
     inkscape:groupmode="layer"
     id="layer1"
     transform="translate(0,-1007.3622)">
    <rect
       style="opacity:1;fill:none;fill-opacity:1;stroke:none;stroke-width:1.95103896;stroke-linecap:round;stroke-linejoin:round;stroke-miterlimit:4;stroke-dasharray:none;stroke-dashoffset:0;stroke-opacity:1"
       id="rect5524-3"
       width="45"
       height="45"
       x="-47.501274"
       y="1008.649" />
    <path
       style="display:inline;fill:none;fill-rule:evenodd;stroke:none;stroke-width:0.60000008px;stroke-linecap:butt;stroke-linejoin:miter;stroke-opacity:1"
       d="M -20.20591,1022.9818 H 9.5578782 v 29.7638 H -20.20591 Z"
       id="path5102-0"
       inkscape:connector-curvature="0"
       inkscape:export-filename="D:\0-0-Opacite\graphik\pictogrammes\Déf\Sénat.png"
       inkscape:export-xdpi="300"
       inkscape:export-ydpi="300" />
    <g
       style="display:inline"
       id="g21531"
       transform="matrix(0.60000001,0,0,0.60000001,-693.46938,1500.3311)">
      <g
         id="g26265"
         transform="translate(-2.9612495,0.78447194)">
        <rect
           inkscape:export-ydpi="300"
           inkscape:export-xdpi="300"
           inkscape:export-filename="D:\0-0-Agata\graphik\pictogrammes\Déf-1\visu.png"
           y="-822.39929"
           x="1158.7435"
           height="75"
           width="75"
           id="rect5524"
           style="opacity:1;fill:none;fill-opacity:1;stroke:none;stroke-width:3.25173163;stroke-linecap:round;stroke-linejoin:round;stroke-miterlimit:4;stroke-dasharray:none;stroke-dashoffset:0;stroke-opacity:1" />
        <rect
           inkscape:export-ydpi="300"
           inkscape:export-xdpi="300"
           inkscape:export-filename="D:\0-0-Agata\graphik\pictogrammes\Déf-1\visu.png"
           y="-822.39929"
           x="1158.7435"
           height="75"
           width="75"
           id="rect5524-31"
           style="opacity:1;fill:none;fill-opacity:1;stroke:none;stroke-width:3.25173163;stroke-linecap:round;stroke-linejoin:round;stroke-miterlimit:4;stroke-dasharray:none;stroke-dashoffset:0;stroke-opacity:1" />
        <g
           transform="matrix(0.95833327,0,0,0.95833327,282.08356,-268.04588)"
           id="g23874"
           style="display:inline">
          <circle
             style="display:inline;opacity:1;fill:#f5f5f5;fill-opacity:1;stroke:#d00080;stroke-width:3.14540577;stroke-linecap:round;stroke-miterlimit:4;stroke-dasharray:none;stroke-dashoffset:0;stroke-opacity:1"
             id="path5962-3-7-2-0-9-6-6-2-4"
             cx="953.90613"
             cy="-539.32532"
             r="35.927299"
             inkscape:export-filename="F:\Transition-territoriale\planche-pictogrammes.png"
             inkscape:export-xdpi="300"
             inkscape:export-ydpi="300" />
          <g
             id="g23865"
             transform="translate(-188.90625,41.718749)">
            <path
               style="fill:#8f4848;fill-opacity:1;stroke-width:0.83069623"
               inkscape:connector-curvature="0"
               d="m 1161.4615,-595.00811 c 0.7477,0 1.2461,-0.74763 0.9969,-1.41218 -3.0736,-7.89162 -10.716,-13.45728 -19.6875,-13.45728 -8.9716,0 -16.614,5.56566 -19.6875,13.45728 -0.2492,0.66455 0.2492,1.41218 0.9968,1.41218 z"
               id="path23200-7" />
            <g
               style="fill:#282828;fill-opacity:1"
               transform="matrix(0.83069621,0,0,0.83069621,1112.8658,-611.60532)"
               id="g23208-6">
              <path
                 style="fill:#282828;fill-opacity:1"
                 inkscape:connector-curvature="0"
                 d="M 70.6,25 H 1.4 c -0.5,0 -0.9,0.4 -0.9,0.9 v 8.4 c 0,0.5 0.4,0.9 0.9,0.9 h 3.3 l 9.4,19.3 c 0.3,0.9 1.2,1.5 2.2,1.5 h 39.5 c 1,0 1.8,-0.6 2.2,-1.5 l 9.4,-19.3 h 3.3 c 0.5,0 0.9,-0.4 0.9,-0.9 V 25.9 C 71.5,25.4 71.1,25 70.6,25 Z"
                 id="path23202-1" />
              <circle
                 style="fill:#282828;fill-opacity:1"
                 cx="47.700001"
                 cy="66.400002"
                 r="5.0999999"
                 id="circle23204-1" />
              <circle
                 style="fill:#282828;fill-opacity:1"
                 cx="24.299999"
                 cy="66.400002"
                 r="5.0999999"
                 id="circle23206-1" />
            </g>
          </g>
        </g>
      </g>
    </g>
  </g>
</svg>
